{
    "filter": [
        {
            "header": "From",
            "match": "@aircoach.ie",
            "type": "Email"
        }
    ],
    "function": "main",
    "script": "aircoach-ie.js",
    "type": "Text"
}
