[
    {
        "type": "html",
        "filter": [
            { "header": "From", "match": "@brusselsairlines.com" }
        ],
        "script": "brusselsairlines.js"
    },
    {
        "type": "pdf",
        "filter": [
            { "header": "From", "match": "brusselsairlines.com" },
            { "property": "reservationFor.airline.iataCode", "match": "SN" }
        ],
        "script": "brusselsairlines-receipt.js"
    }
]
