[{
    "type": "text",
    "filter": [
        { "header": "From", "match": "@booking.eurowings.com" }
    ],
    "script": "eurowings.js"
}, {
    "type": "pkpass",
    "filter": [ { "field": "passTypeIdentifier", "match": "pass.wings.boardingpass" } ],
    "script": "eurowings-pkpass.js"
}]
